<svg xmlns="http://www.w3.org/2000/svg" width="21.061" height="24.51" viewBox="0 0 21.061 24.51">
  <path id="Path_2" data-name="Path 2" d="M26.061,18.983a17.6,17.6,0,0,1-1.59,2.972c-1.034,1.573-2.493,3.538-4.3,3.551-1.6.015-2.019-1.047-4.2-1.028s-2.631,1.049-4.238,1.032c-1.8-.017-3.184-1.786-4.219-3.357-2.893-4.406-3.2-9.572-1.411-12.319A6.4,6.4,0,0,1,11.255,6.74c1.915,0,3.118,1.051,4.7,1.051,1.536,0,2.471-1.053,4.685-1.053a6.253,6.253,0,0,1,4.708,2.485A5.389,5.389,0,0,0,26.061,18.983Zm-7.1-14A5.369,5.369,0,0,0,20.152,1a5.809,5.809,0,0,0-3.746,2.015A4.994,4.994,0,0,0,15.18,6.9,4.885,4.885,0,0,0,18.958,4.98Z" transform="translate(-5 -1)" fill="#fff"/>
</svg>
